{
    "__CREATED-ON__": "2018-06-11 19:48:45.102945",
    "__DEF-TEXT__": "This file contains information about a PyBpod protocol.",
    "__DEF-URL__": "http://pybpod.readthedocs.org",
    "__SOFTWARE__": "PyBpod GUI API v1.0",
    "__UPDATED-ON__": "2018-06-11 19:48:45.102945",
    "__UUID4__": "1250bd9c-aee4-4d0b-be64-d04fa8abf048",
    "commands": [],
    "name": "pilot_s2_01",
    "trigger-softcodes": false
}