{
    "__CREATED-ON__": "2018-06-11 19:48:45.102318",
    "__DEF-TEXT__": "This file contains information about a PyBpod protocol.",
    "__DEF-URL__": "http://pybpod.readthedocs.org",
    "__SOFTWARE__": "PyBpod GUI API v1.0",
    "__UPDATED-ON__": "2018-06-11 19:48:45.102318",
    "__UUID4__": "26eea4dd-99db-4801-9958-19cbe45a7a86",
    "commands": [],
    "name": "purgevalves",
    "trigger-softcodes": false
}